{
    "development": {
      "username": "root",
      "password": "6M9A4xGdzh53sG3n",
      "database": "epm",
      "host": "adp-gpt-dev.ch50iaafdnui.us-east-1.rds.amazonaws.com",
      "port":3306,
      "dialect": "mysql"
    },
    "testing": {
      "username": "root",
      "password": "developer",
      "database": "testing",
      "host": "localhost",
      "port":3306,
      "dialect": "mysql"
    },
    "production": {
      "username": "root",
      "password": "developer",
      "database": "testing",
      "host": "localhost",
      "port":3306,
      "dialect": "mysql"
    }
}
